SAP1-BR - Diagramas de Blocos/SAP/simulation/qsim/SAP.msim.vcd
$comment
	File created using the following command:
		vcd file SAP.msim.vcd -direction
$end
$date
	Thu Sep 05 19:37:47 2024
$end
$version
	ModelSim Version 2020.1
$end
$timescale
	1ps
$end

$scope module Program_Counter_vlg_vec_tst $end
$var reg 1 ! _CLK $end
$var reg 1 " _CLR $end
$var reg 1 # Cp $end
$var wire 1 $ PC_0 $end
$var wire 1 % PC_1 $end
$var wire 1 & PC_2 $end
$var wire 1 ' PC_3 $end

$scope module i1 $end
$var wire 1 ( gnd $end
$var wire 1 ) vcc $end
$var wire 1 * unknown $end
$var tri1 1 + devclrn $end
$var tri1 1 , devpor $end
$var tri1 1 - devoe $end
$var wire 1 . ~QUARTUS_CREATED_GND~I_combout $end
$var wire 1 / ~QUARTUS_CREATED_UNVM~~busy $end
$var wire 1 0 ~QUARTUS_CREATED_ADC1~~eoc $end
$var wire 1 1 ~QUARTUS_CREATED_ADC2~~eoc $end
$var wire 1 2 PC_0~output_o $end
$var wire 1 3 PC_1~output_o $end
$var wire 1 4 PC_2~output_o $end
$var wire 1 5 PC_3~output_o $end
$var wire 1 6 _CLK~input_o $end
$var wire 1 7 inst~0_combout $end
$var wire 1 8 inst~feeder_combout $end
$var wire 1 9 _CLR~input_o $end
$var wire 1 : _CLR~inputclkctrl_outclk $end
$var wire 1 ; Cp~input_o $end
$var wire 1 < inst~q $end
$var wire 1 = inst1~0_combout $end
$var wire 1 > inst1~feeder_combout $end
$var wire 1 ? inst1~q $end
$var wire 1 @ inst2~0_combout $end
$var wire 1 A inst2~feeder_combout $end
$var wire 1 B inst2~q $end
$var wire 1 C inst3~0_combout $end
$var wire 1 D inst3~q $end
$upscope $end
$upscope $end
$enddefinitions $end
#0
$dumpvars
0!
0"
0#
0$
0%
0&
0'
0(
1)
x*
1+
1,
1-
0.
z/
z0
z1
02
03
04
05
06
17
18
09
0:
0;
0<
1=
1>
0?
1@
1A
0B
1C
0D
$end
#5000
1!
16
#10000
0!
06
#15000
1!
16
#20000
0!
06
#25000
1!
16
#30000
0!
06
#35000
1!
16
#40000
0!
06
#45000
1!
16
#50000
0!
06
#55000
1!
16
#60000
0!
06
#65000
1!
16
#70000
0!
06
#75000
1#
1!
1;
16
#80000
0!
06
#85000
1!
16
#90000
0!
06
#95000
1!
16
#100000
0!
06
#105000
1!
16
#110000
0!
06
#115000
1!
16
#120000
0!
06
#125000
1"
1!
19
1:
16
1<
12
07
1$
08
#130000
0!
06
#135000
1!
16
0<
02
17
0$
18
1?
13
0=
1%
0>
#140000
0!
06
#145000
1!
16
1<
12
07
1$
08
#150000
0#
0!
0;
06
#155000
1!
16
#160000
0!
06
#165000
1!
16
#170000
0!
06
#175000
1!
16
#180000
0!
06
#185000
1!
16
#190000
0!
06
#195000
1!
16
#200000
0!
06
#205000
1!
16
#210000
0!
06
#215000
1!
16
#220000
0!
06
#225000
1#
1!
1;
16
0<
02
17
0$
18
0?
03
1=
0%
1>
1B
14
0@
1&
0A
#230000
0!
06
#235000
1!
16
1<
12
07
1$
08
#240000
0!
06
#245000
1!
16
0<
02
17
0$
18
1?
13
0=
1%
0>
#250000
0"
0!
09
0:
06
0?
0B
04
03
1=
1@
0%
0&
1>
1A
#255000
1!
16
#260000
0!
06
#265000
1!
16
#270000
0!
06
#275000
1!
16
#280000
0!
06
#285000
1!
16
#290000
0!
06
#295000
1!
16
#300000
0#
0!
0;
06
#305000
1!
16
#310000
0!
06
#315000
1!
16
#320000
0!
06
#325000
1!
16
#330000
0!
06
#335000
1!
16
#340000
0!
06
#345000
1!
16
#350000
0!
06
#355000
1!
16
#360000
0!
06
#365000
1!
16
#370000
0!
06
#375000
1"
1#
1!
1;
19
1:
16
1<
12
07
1$
08
#380000
0!
06
#385000
1!
16
0<
02
17
0$
18
1?
13
0=
1%
0>
#390000
0!
06
#395000
1!
16
1<
12
07
1$
08
#400000
0!
06
#405000
1!
16
0<
02
17
0$
18
0?
03
1=
0%
1>
1B
14
0@
1&
0A
#410000
0!
06
#415000
1!
16
1<
12
07
1$
08
#420000
0!
06
#425000
1!
16
0<
02
17
0$
18
1?
13
0=
1%
0>
#430000
0!
06
#435000
1!
16
1<
12
07
1$
08
#440000
0!
06
#445000
1!
16
0<
02
17
0$
18
0?
03
1=
0%
1>
0B
04
1@
0&
1A
1D
15
1'
0C
#450000
0#
0!
0;
06
#455000
1!
16
#460000
0!
06
#465000
1!
16
#470000
0!
06
#475000
1!
16
#480000
0!
06
#485000
1!
16
#490000
0!
06
#495000
1!
16
#500000
0"
0!
09
0:
06
0D
05
0'
1C
#505000
1!
16
#510000
0!
06
#515000
1!
16
#520000
0!
06
#525000
1#
1!
1;
16
#530000
0!
06
#535000
1!
16
#540000
0!
06
#545000
1!
16
#550000
0!
06
#555000
1!
16
#560000
0!
06
#565000
1!
16
#570000
0!
06
#575000
1!
16
#580000
0!
06
#585000
1!
16
#590000
0!
06
#595000
1!
16
#600000
0#
0!
0;
06
#605000
1!
16
#610000
0!
06
#615000
1!
16
#620000
0!
06
#625000
1"
1!
19
1:
16
#630000
0!
06
#635000
1!
16
#640000
0!
06
#645000
1!
16
#650000
0!
06
#655000
1!
16
#660000
0!
06
#665000
1!
16
#670000
0!
06
#675000
1#
1!
1;
16
1<
12
07
1$
08
#680000
0!
06
#685000
1!
16
0<
02
17
0$
18
1?
13
0=
1%
0>
#690000
0!
06
#695000
1!
16
1<
12
07
1$
08
#700000
0!
06
#705000
1!
16
0<
02
17
0$
18
0?
03
1=
0%
1>
1B
14
0@
1&
0A
#710000
0!
06
#715000
1!
16
1<
12
07
1$
08
#720000
0!
06
#725000
1!
16
0<
02
17
0$
18
1?
13
0=
1%
0>
#730000
0!
06
#735000
1!
16
1<
12
07
1$
08
#740000
0!
06
#745000
1!
16
0<
02
17
0$
18
0?
03
1=
0%
1>
0B
04
1@
0&
1A
1D
15
1'
0C
#750000
0"
0#
0!
0;
09
0:
06
0D
05
0'
1C
#755000
1!
16
#760000
0!
06
#765000
1!
16
#770000
0!
06
#775000
1!
16
#780000
0!
06
#785000
1!
16
#790000
0!
06
#795000
1!
16
#800000
0!
06
#805000
1!
16
#810000
0!
06
#815000
1!
16
#820000
0!
06
#825000
1#
1!
1;
16
#830000
0!
06
#835000
1!
16
#840000
0!
06
#845000
1!
16
#850000
0!
06
#855000
1!
16
#860000
0!
06
#865000
1!
16
#870000
0!
06
#875000
1"
1!
19
1:
16
1<
12
07
1$
08
#880000
0!
06
#885000
1!
16
0<
02
17
0$
18
1?
13
0=
1%
0>
#890000
0!
06
#895000
1!
16
1<
12
07
1$
08
#900000
0#
0!
0;
06
#905000
1!
16
#910000
0!
06
#915000
1!
16
#920000
0!
06
#925000
1!
16
#930000
0!
06
#935000
1!
16
#940000
0!
06
#945000
1!
16
#950000
0!
06
#955000
1!
16
#960000
0!
06
#965000
1!
16
#970000
0!
06
#975000
1#
1!
1;
16
0<
02
17
0$
18
0?
03
1=
0%
1>
1B
14
0@
1&
0A
#980000
0!
06
#985000
1!
16
1<
12
07
1$
08
#990000
0!
06
#995000
1!
16
0<
02
17
0$
18
1?
13
0=
1%
0>
